{
  "description": "Allows for the user to input a text string",
  "allOf": [
    {"$ref": "/response-areas/definitions/commonResponseAreaProperties.json"},
    {
      "properties": {
        "type": {
          "enum": [ "textboxResponseArea" ]
        },
        "rows": {
          "type": "integer",
          "description": "number of rows in text box (1 = one line of text). Default: 1."
        },
        "submitEmpty": {
          "type": "boolean",
          "description": "DEPRECATED - please use responseRequired from commonResponseAreaProperties.json. "
        }
      }
    }
  ]
}