{
  "description": "CHA - common properties across all audiometry exams",
  "properties": {
    "skip": {
      "type": "boolean",
      "description": "Allows user to skip the response area",
      "default": false
    },
    "pause": {
      "type": "boolean",
      "description": "Allows user to pause the current CHA presentation.  Takes user back to beginning of the page, with the 'start' button.",
      "default": false
    },
    "autoSubmit": {
      "type": "boolean",
      "description": "Go straight to next page once this page is complete",
      "default": false
    },
    "autoBegin": {
      "type": "boolean",
      "description": "Go straight into exam, without having to press the 'Begin' button",
      "default": false
    },
    "repeatIfFailedOnce": {
      "type": "boolean",
      "description": "Repeat frequency if fails to converge",
      "default": false
    },
    "getNotesIfFailedTwice": {
      "type": "boolean",
      "description": "Ask for researcher notes if repeat fails to converge",
      "default": false
    },
    "showMessageIfNoResponse": {
      "type": "boolean",
      "description": "If true, if the listener did not press the software button ONCE during an audiometry exam, show them a message about it.  The message is noButtonPressMessage.",
      "default": false
    },
    "noResponseCustomMessage": {
      "type": "string",
      "description": "The MEssage to show the user if they did not press teh software button ONCE during an audiometry exam.",
      "default": "It looks like you did not press the button at all during the last test. Please make sure to press the button if you hear any sound."
    },
    "examInstructions": {
      "type": "string",
      "description": "Replaces the top-level instruction text on the CHA exam pages (each page after starting page)"
    },
    "hideExamProperties": {
      "type": "string",
      "description": "Hide the parameters of the audiometry test (i.e. Frequency, Level, Ear) before and/or during a test",
      "enum": ["before", "during", "always"],
      "default": ""
    },
    "resultMainText":{
      "type": "string",
      "description": "Replaces the `questionMainText` text while presenting results"
    },
    "resultSubText":{
      "type": "string",
      "description": "Replaces the `questionSubText` text while presenting results"
    },
    "plotProperties": {
      "allOf": [
        {
          "$ref": "/cha/definitions/audiometryPlotProperties.json"
        }
      ]
    },
    "measureBackground": {
      "type": "string",
      "description": "Select a method from the list below to measure background noise after an audiometry exam",
      "enum": ["ThirdOctaveBands"]
    },
    "maskingNoise": { "$ref": "/cha/definitions/maskingNoiseProperties.json" }
  }
}
