{
  "title": "WAHTS Calibration Check",
  "minTabsintVersion": "3.4.0",
  "headset": "WAHTS",
  "pages": [
    {
      "id": "calibration",
      "questionMainText": "WAHTS Calibration Check",
      "questionSubText": "Instructions",
      "instructionText": "Place the WAHTS on the calibration check fixture.<br><br>Take care to line up the earcups with the alignment features.<br><br>Press the button below when ready to begin.",
      "helpText": "Follow instructions",
      "image": {
        "path": "wahts-on-fixture.png"
      },
      "responseArea": {
        "type": "chaCalibrationCheck"
      }
    }
  ]
}
