{
    "$schema" : "http://json-schema.org/draft-04/schema#",
    "title" : "Site Token Response Schema (unversioned)",
    "additionalProperties" : false,
    "required" : ["success", "status"],
    "properties" : {
        "success": {
            "type" : "boolean",
            "description" : "Was this API call successful?"
        },
        "status": {
            "enum" : ["site token returned",
                      "authentication failed",
                      "site not found or no protocol assigned"]
        },
        "sitetoken" : {
            "description" : "Site token object.",
            "required" : ["siteId", "protocolId", "protocolHash"],
            "properties" : {
                "siteId" : {
                    "type" : "integer",
                    "description" : "site ID, defined by server."
                },
                "protocolId" : {
                    "type" : "integer",
                    "description" : "protocol ID, defined by server."
                },
                "protocolHash" : {
                    "type" : "string",
                    "description" : "hash of the protocol .zip file, calculated by server to ensure uniqueness."
                }
            }
        }
    }
}